%YAML 1.1
%TAG !u! tag:unity3d.com,2011:
--- !u!1045 &1
EditorBuildSettings:
  m_ObjectHideFlags: 0
  serializedVersion: 2
  m_Scenes:
  - enabled: 1
    path: Assets/Scenes/FinalScenes/TitleScreen.unity
    guid: b40bcce1202bc324fbd7df64af5b8b69
  - enabled: 1
    path: Assets/Scenes/FinalScenes/House.unity
    guid: b6603602eca4134458d949caa2ba37e8
  - enabled: 1
    path: Assets/Scenes/FinalScenes/VignetteOne.unity
    guid: b4cacb3b6ba546d40a970551eb6c5c1a
  - enabled: 1
    path: Assets/Scenes/FinalScenes/VignetteTwo.unity
    guid: b63fe982334ed7e4aa71d825657c069c
  - enabled: 1
    path: Assets/Scenes/FinalScenes/VignetteThree.unity
    guid: 88e26d323834064499322c4aa61e0d73
  - enabled: 1
    path: Assets/Scenes/FinalScenes/Credits.unity
    guid: 5a43db698e00f6b4d957d9564f046a5b
  m_configObjects:
    com.unity.input.settings: {fileID: 11400000, guid: 9e7be553448fa2546aea5752021cbcf7, type: 2}
