%YAML 1.1
%TAG !u! tag:unity3d.com,2011:
--- !u!1001 &2065310731956121528
PrefabInstance:
  m_ObjectHideFlags: 0
  serializedVersion: 2
  m_Modification:
    m_TransformParent: {fileID: 0}
    m_Modifications:
    - target: {fileID: -8679921383154817045, guid: 446fd18c9a1690f42a15023cc4952c4d, type: 3}
      propertyPath: m_RootOrder
      value: 0
      objectReference: {fileID: 0}
    - target: {fileID: -8679921383154817045, guid: 446fd18c9a1690f42a15023cc4952c4d, type: 3}
      propertyPath: m_LocalScale.x
      value: 5
      objectReference: {fileID: 0}
    - target: {fileID: -8679921383154817045, guid: 446fd18c9a1690f42a15023cc4952c4d, type: 3}
      propertyPath: m_LocalScale.y
      value: 5
      objectReference: {fileID: 0}
    - target: {fileID: -8679921383154817045, guid: 446fd18c9a1690f42a15023cc4952c4d, type: 3}
      propertyPath: m_LocalScale.z
      value: 50
      objectReference: {fileID: 0}
    - target: {fileID: -8679921383154817045, guid: 446fd18c9a1690f42a15023cc4952c4d, type: 3}
      propertyPath: m_LocalPosition.x
      value: -31.37
      objectReference: {fileID: 0}
    - target: {fileID: -8679921383154817045, guid: 446fd18c9a1690f42a15023cc4952c4d, type: 3}
      propertyPath: m_LocalPosition.y
      value: -1.46
      objectReference: {fileID: 0}
    - target: {fileID: -8679921383154817045, guid: 446fd18c9a1690f42a15023cc4952c4d, type: 3}
      propertyPath: m_LocalPosition.z
      value: 13.29
      objectReference: {fileID: 0}
    - target: {fileID: -8679921383154817045, guid: 446fd18c9a1690f42a15023cc4952c4d, type: 3}
      propertyPath: m_LocalRotation.w
      value: 1
      objectReference: {fileID: 0}
    - target: {fileID: -8679921383154817045, guid: 446fd18c9a1690f42a15023cc4952c4d, type: 3}
      propertyPath: m_LocalRotation.x
      value: 0
      objectReference: {fileID: 0}
    - target: {fileID: -8679921383154817045, guid: 446fd18c9a1690f42a15023cc4952c4d, type: 3}
      propertyPath: m_LocalRotation.y
      value: 0
      objectReference: {fileID: 0}
    - target: {fileID: -8679921383154817045, guid: 446fd18c9a1690f42a15023cc4952c4d, type: 3}
      propertyPath: m_LocalRotation.z
      value: 0
      objectReference: {fileID: 0}
    - target: {fileID: -8679921383154817045, guid: 446fd18c9a1690f42a15023cc4952c4d, type: 3}
      propertyPath: m_LocalEulerAnglesHint.x
      value: 0
      objectReference: {fileID: 0}
    - target: {fileID: -8679921383154817045, guid: 446fd18c9a1690f42a15023cc4952c4d, type: 3}
      propertyPath: m_LocalEulerAnglesHint.y
      value: 0
      objectReference: {fileID: 0}
    - target: {fileID: -8679921383154817045, guid: 446fd18c9a1690f42a15023cc4952c4d, type: 3}
      propertyPath: m_LocalEulerAnglesHint.z
      value: 0
      objectReference: {fileID: 0}
    - target: {fileID: -5568371526223589888, guid: 446fd18c9a1690f42a15023cc4952c4d, type: 3}
      propertyPath: m_Layer
      value: 8
      objectReference: {fileID: 0}
    - target: {fileID: 919132149155446097, guid: 446fd18c9a1690f42a15023cc4952c4d, type: 3}
      propertyPath: m_Name
      value: Vignette2
      objectReference: {fileID: 0}
    - target: {fileID: 919132149155446097, guid: 446fd18c9a1690f42a15023cc4952c4d, type: 3}
      propertyPath: m_Layer
      value: 8
      objectReference: {fileID: 0}
    - target: {fileID: 4974984522306558807, guid: 446fd18c9a1690f42a15023cc4952c4d, type: 3}
      propertyPath: m_Layer
      value: 8
      objectReference: {fileID: 0}
    m_RemovedComponents: []
  m_SourcePrefab: {fileID: 100100000, guid: 446fd18c9a1690f42a15023cc4952c4d, type: 3}
--- !u!1 &1182226766363022057 stripped
GameObject:
  m_CorrespondingSourceObject: {fileID: 919132149155446097, guid: 446fd18c9a1690f42a15023cc4952c4d, type: 3}
  m_PrefabInstance: {fileID: 2065310731956121528}
  m_PrefabAsset: {fileID: 0}
--- !u!54 &474391739
Rigidbody:
  m_ObjectHideFlags: 0
  m_CorrespondingSourceObject: {fileID: 0}
  m_PrefabInstance: {fileID: 0}
  m_PrefabAsset: {fileID: 0}
  m_GameObject: {fileID: 1182226766363022057}
  serializedVersion: 2
  m_Mass: 1
  m_Drag: 0
  m_AngularDrag: 0.05
  m_UseGravity: 0
  m_IsKinematic: 1
  m_Interpolate: 0
  m_Constraints: 126
  m_CollisionDetection: 3
--- !u!65 &474391740
BoxCollider:
  m_ObjectHideFlags: 0
  m_CorrespondingSourceObject: {fileID: 0}
  m_PrefabInstance: {fileID: 0}
  m_PrefabAsset: {fileID: 0}
  m_GameObject: {fileID: 1182226766363022057}
  m_Material: {fileID: 0}
  m_IsTrigger: 0
  m_Enabled: 1
  serializedVersion: 2
  m_Size: {x: 0.07817228, y: 0.5499065, z: 0.033508547}
  m_Center: {x: 0.0000000037252903, y: -0.22424123, z: 0}
--- !u!114 &474391736
MonoBehaviour:
  m_ObjectHideFlags: 0
  m_CorrespondingSourceObject: {fileID: 0}
  m_PrefabInstance: {fileID: 0}
  m_PrefabAsset: {fileID: 0}
  m_GameObject: {fileID: 1182226766363022057}
  m_Enabled: 1
  m_EditorHideFlags: 0
  m_Script: {fileID: 11500000, guid: eda507e4cafae334d973fc1fc5ef29d4, type: 3}
  m_Name: 
  m_EditorClassIdentifier: 
  vignetteSceneIndex: 3
--- !u!114 &474391737
MonoBehaviour:
  m_ObjectHideFlags: 0
  m_CorrespondingSourceObject: {fileID: 0}
  m_PrefabInstance: {fileID: 0}
  m_PrefabAsset: {fileID: 0}
  m_GameObject: {fileID: 1182226766363022057}
  m_Enabled: 1
  m_EditorHideFlags: 0
  m_Script: {fileID: 11500000, guid: 1364b908ad3cf884f812f076bbadc5db, type: 3}
  m_Name: 
  m_EditorClassIdentifier: 
  onInteraction:
    m_PersistentCalls:
      m_Calls:
      - m_Target: {fileID: 474391736}
        m_TargetAssemblyTypeName: GameManagement.VignetteStarter, Assembly-CSharp
        m_MethodName: LoadVignette
        m_Mode: 1
        m_Arguments:
          m_ObjectArgument: {fileID: 0}
          m_ObjectArgumentAssemblyTypeName: UnityEngine.Object, UnityEngine
          m_IntArgument: 0
          m_FloatArgument: 0
          m_StringArgument: 
          m_BoolArgument: 0
        m_CallState: 2
--- !u!114 &474391738
MonoBehaviour:
  m_ObjectHideFlags: 0
  m_CorrespondingSourceObject: {fileID: 0}
  m_PrefabInstance: {fileID: 0}
  m_PrefabAsset: {fileID: 0}
  m_GameObject: {fileID: 1182226766363022057}
  m_Enabled: 1
  m_EditorHideFlags: 0
  m_Script: {fileID: 11500000, guid: 5fea29bb7c508c244a1f805a5fd3fc4d, type: 3}
  m_Name: 
  m_EditorClassIdentifier: 
  outlineMode: 0
  outlineColor: {r: 1, g: 1, b: 1, a: 1}
  outlineWidth: 2
  precomputeOutline: 0
  bakeKeys: []
  bakeValues: []
